{
	"info": {
		"_postman_id": "c3aae1c9-a387-402b-83e5-95ea1046ea68",
		"name": "DELETE_Reference",
		"schema": "https://schema.getpostman.com/json/collection/v2.1.0/collection.json",
		"_exporter_id": "21575709"
	},
	"item": [
		{
			"name": "DELETE_TC1",
			"event": [
				{
					"listen": "test",
					"script": {
						"exec": [
							"pm.test(\"Status code is 204\", function () {\r",
							"    pm.response.to.have.status(204);\r",
							"});"
						],
						"type": "text/javascript"
					}
				}
			],
			"request": {
				"method": "DELETE",
				"header": [],
				"url": {
					"raw": "{{DELETE_URL}}",
					"host": [
						"{{DELETE_URL}}"
					]
				}
			},
			"response": []
		}
	]
}