{
	"info": {
		"_postman_id": "e3be57f5-051c-42d0-94eb-1cf3e90c6334",
		"name": "GET_Reference",
		"schema": "https://schema.getpostman.com/json/collection/v2.1.0/collection.json",
		"_exporter_id": "21575709"
	},
	"item": [
		{
			"name": "GET_TC_1_For_Loop",
			"event": [
				{
					"listen": "test",
					"script": {
						"exec": [
							"//Fetch the response in a variable\r",
							"var responseBody = pm.response.json();\r",
							"\r",
							"//Fetch Value for each Key of JSON Data :\r",
							"\r",
							"//Key 1 : \"page\" -\r",
							"// var json_page = responseBody.page;\r",
							"// console.log(json_page);\r",
							"\r",
							"//Key 2 : \"per_page\" -\r",
							"// var json_per_page = responseBody.per_page;\r",
							"// console.log(json_per_page);\r",
							"\r",
							"//Key 3 : \"total\" -\r",
							"// var json_total = responseBody.total;\r",
							"// console.log(json_total);\r",
							"\r",
							"//Key 4 : \"total_pages\" -\r",
							"// var json_total_pages = responseBody.total_pages;\r",
							"// console.log(json_total_pages);\r",
							"\r",
							"//Key 5 : \"data\" (Array) -\r",
							"\r",
							"//Code to fetch count of JSON object array :\r",
							"\r",
							"//1. Fetch the size of the array -\r",
							"var res_data_array = responseBody.data;\r",
							"var count_json_obj =Object.keys(res_data_array).length;\r",
							"console.log(count_json_obj);\r",
							"\r",
							"//2. Fetch key-value of each object of array (Using for-loop) -\r",
							"\r",
							"for(i=0;i<count_json_obj;i++)\r",
							"{\r",
							"   // 1. - \"id\" :\r",
							"   var res_id = responseBody.data[i].id;\r",
							"   console.log(res_id);\r",
							"\r",
							"   // 2. - \"email\" :\r",
							"   var res_email = responseBody.data[i].email;\r",
							"   console.log(res_email);\r",
							"\r",
							"   // 3. - \"first_name\" : \r",
							"   var res_fname = responseBody.data[i].first_name;\r",
							"   console.log(res_fname);\r",
							"\r",
							"   // 4. - \"last_name\" :\r",
							"   var res_lname = responseBody.data[i].last_name;\r",
							"   console.log(res_lname);\r",
							"   \r",
							"   // 5. - \"avatar\" :\r",
							"   var res_avatar=responseBody.data[i].avatar;\r",
							"   console.log(res_avatar);\r",
							"}\r",
							"\r",
							"\r",
							"\r",
							"\r",
							""
						],
						"type": "text/javascript"
					}
				}
			],
			"request": {
				"method": "GET",
				"header": [],
				"url": {
					"raw": "https://reqres.in/api/users?page=2",
					"protocol": "https",
					"host": [
						"reqres",
						"in"
					],
					"path": [
						"api",
						"users"
					],
					"query": [
						{
							"key": "page",
							"value": "2"
						}
					]
				}
			},
			"response": []
		},
		{
			"name": "GET_TC_1_While_Loop",
			"event": [
				{
					"listen": "test",
					"script": {
						"exec": [
							"//Fetch the response in a variable\r",
							"var responseBody = pm.response.json();\r",
							"\r",
							"//Fetch Value for each Key of JSON Data :\r",
							"\r",
							"//Key 1 : \"page\" -\r",
							"// var json_page = responseBody.page;\r",
							"// console.log(json_page);\r",
							"\r",
							"//Key 2 : \"per_page\" -\r",
							"// var json_per_page = responseBody.per_page;\r",
							"// console.log(json_per_page);\r",
							"\r",
							"//Key 3 : \"total\" -\r",
							"// var json_total = responseBody.total;\r",
							"// console.log(json_total);\r",
							"\r",
							"//Key 4 : \"total_pages\" -\r",
							"// var json_total_pages = responseBody.total_pages;\r",
							"// console.log(json_total_pages);\r",
							"\r",
							"//Key 5 : \"data\" (Array) -\r",
							"\r",
							"//Code to fetch count of JSON object array :\r",
							"\r",
							"//1. Fetch the size of the array -\r",
							"var res_data_array = responseBody.data;\r",
							"var count_json_obj =Object.keys(res_data_array).length;\r",
							"console.log(count_json_obj);\r",
							"\r",
							"//2. Fetch key-value of each object of array (Using while-loop) -\r",
							"\r",
							"var i=0;\r",
							"while(i<count_json_obj)\r",
							"{\r",
							"  // 1. - \"id\" :\r",
							"   var res_id = responseBody.data[i].id;\r",
							"   console.log(res_id);\r",
							"\r",
							"   // 2. - \"email\" :\r",
							"   var res_email = responseBody.data[i].email;\r",
							"   console.log(res_email);\r",
							"\r",
							"   // 3. - \"first_name\" : \r",
							"   var res_fname = responseBody.data[i].first_name;\r",
							"   console.log(res_fname);\r",
							"\r",
							"   // 4. - \"last_name\" :\r",
							"   var res_lname = responseBody.data[i].last_name;\r",
							"   console.log(res_lname);\r",
							"   \r",
							"   // 5. - \"avatar\" :\r",
							"   var res_avatar=responseBody.data[i].avatar;\r",
							"   console.log(res_avatar);\r",
							"   i++\r",
							"}\r",
							"\r",
							"\r",
							"\r",
							"\r",
							"\r",
							""
						],
						"type": "text/javascript"
					}
				}
			],
			"request": {
				"method": "GET",
				"header": [],
				"url": {
					"raw": "https://reqres.in/api/users?page=2",
					"protocol": "https",
					"host": [
						"reqres",
						"in"
					],
					"path": [
						"api",
						"users"
					],
					"query": [
						{
							"key": "page",
							"value": "2"
						}
					]
				}
			},
			"response": []
		}
	]
}