{
	"id": "da2721a1-d6cf-41ea-bfb6-444edbedaab8",
	"name": "Req_Res_Env",
	"values": [
		{
			"key": "Base_URL",
			"value": "https://reqres.in",
			"type": "default",
			"enabled": true
		},
		{
			"key": "POST_URL",
			"value": "{{Base_URL}}/api/users",
			"type": "default",
			"enabled": true
		},
		{
			"key": "GET_URL",
			"value": "{{Base_URL}}/api/users?page=2",
			"type": "default",
			"enabled": true
		},
		{
			"key": "PUT_URL",
			"value": "{{BaseURL}}/api/users/2",
			"type": "default",
			"enabled": true
		},
		{
			"key": "PATCH_URL",
			"value": "{{Base_URL}}/api/users/2",
			"type": "default",
			"enabled": true
		},
		{
			"key": "DELETE_URL",
			"value": "{{Base_URL}}/api/users/2",
			"type": "default",
			"enabled": true
		}
	],
	"_postman_variable_scope": "environment",
	"_postman_exported_at": "2022-10-27T08:06:02.714Z",
	"_postman_exported_using": "Postman/10.18.11"
}